…
    ## The following objects are masked from 'package:base':
    ## 
    ##     intersect, setdiff, setequal, union

``` r
iedb.res<-as.tbl(iedb.results)
```

``` r
iedb.res
```

    ## # A tibble: 112 x 16
    ##    allele seq_num start   end length peptide method percentile_rank
    ##    <fct>    <int> <int> <int>  <int> <fct>   <fct>            <dbl>
    ##  1 HLA-A…       3     1     9      9 YLDDRN… Conse…             0.2
    ##  2 HLA-B…       3     8    16      9 FVHSVV… Conse…             0.2
    ##  3 HLA-B…       1     1     9      9 SPLPSQ… Conse…             0.4
    ##  4 HLA-A…       2     9    17      9 WMPEAA… Conse…             0.4
    ##  5 HLA-B…       1     3    11      9 LPSQAM… Conse…             0.5
    ##  6 HLA-A…       4     1     9      9 ILTIIT… Conse…             0.7
    ##  7 HLA-A…       3     8    16      9 FVHSVV… Conse…             2.1
    ##  8 HLA-B…       1     3    11      9 LPSQAM… Conse…             2.2
    ##  9 HLA-B…       2     7    15      9 APWMPE… Conse…             2.2
    ## 10 HLA-B…       2     7    15      9 APWMPE… Conse…             2.8
    ## # … with 102 more rows, and 8 more variables: ann_ic50 <dbl>,
    ## #   ann_rank <dbl>, smm_ic50 <dbl>, smm_rank <dbl>,
    ## #   comblib_sidney2008_score <fct>, comblib_sidney2008_rank <fct>,
    ## #   netmhcpan_ic50 <fct>, netmhcpan_rank <fct>
…
``` r
unique(iedb.res$allele)
```

    ## [1] HLA-A*02:01 HLA-B*35:01 HLA-B*07:02 HLA-A*68:01
    ## Levels: HLA-A*02:01 HLA-A*68:01 HLA-B*07:02 HLA-B*35:01

``` r
iedb.hla02<-filter(iedb.res, allele == "HLA-A*02:01")
iedb.hla02
```

    ## # A tibble: 28 x 16
    ##    allele seq_num start   end length peptide method percentile_rank
    ##    <fct>    <int> <int> <int>  <int> <fct>   <fct>            <dbl>
    ##  1 HLA-A…       3     1     9      9 YLDDRN… Conse…             0.2
    ##  2 HLA-A…       2     9    17      9 WMPEAA… Conse…             0.4
    ##  3 HLA-A…       4     1     9      9 ILTIIT… Conse…             0.7
    ##  4 HLA-A…       1     7    15      9 AMLDLM… Conse…             4  
    ##  5 HLA-A…       1     5    13      9 SQAMLD… Conse…             7.7
    ##  6 HLA-A…       3     6    14      9 NTFVHS… Conse…             8.5
    ##  7 HLA-A…       1     8    16      9 MLDLML… Conse…             8.9
    ##  8 HLA-A…       3     8    16      9 FVHSVV… Conse…            16  
    ##  9 HLA-A…       1     6    14      9 QAMLDL… Conse…            26  
    ## 10 HLA-A…       2     5    13      9 DEAPWM… Conse…            32  
    ## # … with 18 more rows, and 8 more variables: ann_ic50 <dbl>,
    ## #   ann_rank <dbl>, smm_ic50 <dbl>, smm_rank <dbl>,
    ## #   comblib_sidney2008_score <fct>, comblib_sidney2008_rank <fct>,
    ## #   netmhcpan_ic50 <fct>, netmhcpan_rank <fct>

``` r
iedb.hla35<-filter(iedb.res,allele =="HLA-B*35:01")
iedb.hla35
```

    ## # A tibble: 28 x 16
    ##    allele seq_num start   end length peptide method percentile_rank
    ##    <fct>    <int> <int> <int>  <int> <fct>   <fct>            <dbl>
    ##  1 HLA-B…       3     8    16      9 FVHSVV… Conse…             0.2
    ##  2 HLA-B…       1     3    11      9 LPSQAM… Conse…             2.2
    ##  3 HLA-B…       2     7    15      9 APWMPE… Conse…             2.2
    ##  4 HLA-B…       2     6    14      9 EAPWMP… Conse…             4.2
    ##  5 HLA-B…       1     1     9      9 SPLPSQ… Conse…             5.2
    ##  6 HLA-B…       2     1     9      9 DPGPDE… Conse…             5.2
    ##  7 HLA-B…       2     3    11      9 GPDEAP… Conse…             6.6
    ##  8 HLA-B…       1     6    14      9 QAMLDL… Conse…             9.2
    ##  9 HLA-B…       1     8    16      9 MLDLML… Conse…             9.8
    ## 10 HLA-B…       2     9    17      9 WMPEAA… Conse…            13  
    ## # … with 18 more rows, and 8 more variables: ann_ic50 <dbl>,
    ## #   ann_rank <dbl>, smm_ic50 <dbl>, smm_rank <dbl>,
    ## #   comblib_sidney2008_score <fct>, comblib_sidney2008_rank <fct>,
    ## #   netmhcpan_ic50 <fct>, netmhcpan_rank <fct>
